…
From R, you can query the list of available datasets as follows:

``` r
library(pins)

board_register_datatxt("https://raw.githubusercontent.com/javierluraschi/covid/datasets/data.txt", "covid")

pin_find(board = "covid")
```

    ## # A tibble: 94 x 4
    ##    name             description type  board
    ##    <chr>            <chr>       <chr> <chr>
    ##  1 covid-20200228-1 ""          table covid
    ##  2 covid-20200228-2 ""          table covid
    ##  3 covid-20200228-3 ""          table covid
    ##  4 covid-20200228-4 ""          table covid
    ##  5 covid-20200227-1 ""          table covid
    ##  6 covid-20200227-2 ""          table covid
    ##  7 covid-20200227-3 ""          table covid
    ##  8 covid-20200226-1 ""          table covid
    ##  9 covid-20200226-2 ""          table covid
    ## 10 covid-20200225-1 ""          table covid
    ## # … with 84 more rows

You can then retrieve specific tables from the daily reports as follows:

``` r
pin_get("covid-20200227-1", board = "covid")
```

    ## # A tibble: 41 x 6
    ##    V1        V2         V3        V4        V5     V6        
    ##    <chr>     <chr>      <chr>     <chr>     <chr>  <chr>     
    ##  1 Province/ ""         ""        Daily     ""     Cumulative
    ##  2 ""        Population ""        ""        ""     ""        
    ##  3 Region/   ""         ""        ""        ""     ""        
    ##  4 ""        (10,000s)  Confirmed Suspected ""     Confirmed 
    ##  5 City      ""         ""        ""        Deaths Deaths    
    ##  6 ""        ""         cas es    cas es    ""     cases     
    ##  7 Hubei     5917       409       403       26     65596 2641
    ##  8 Guangdong 11346      0         0         0      1347 7    
    ##  9 Henan     9605       1         2         1      1272 20   
    ## 10 Zhejiang  5737       0         0         0      1205 1    
    ## # … with 31 more rows
…
